{
    "nixpkgs": {
        "branch": "nixos-unstable",
        "description": "Nix Packages collection",
        "homepage": null,
        "owner": "NixOS",
        "repo": "nixpkgs",
        "rev": "7bb2ccd8cdc44c91edba16c48d2c8f331fb3d856",
        "sha256": "0ijqx995jw9i16f28whyjdll9b0nydmyl4n91bci2cgryxms7f8f",
        "type": "tarball",
        "url": "https://github.com/NixOS/nixpkgs/archive/7bb2ccd8cdc44c91edba16c48d2c8f331fb3d856.tar.gz",
        "url_template": "https://github.com/<owner>/<repo>/archive/<rev>.tar.gz"
    }
}
